aiodns==2.0.0 \
    --hash=sha256:815fdef4607474295d68da46978a54481dd1e7be153c7d60f9e72773cd38d77d \
    --hash=sha256:aaa5ac584f40fe778013df0aa6544bf157799bd3f608364b451840ed2c8688de
aiohttp==3.6.1 \
    --hash=sha256:022c400e30848b1994236e31fb38db1dc4b551efe049f737cbac690ab2cdf5c4 \
    --hash=sha256:10f9316ef068536dec0b9f09531fa1cb6bfa8394f278022cb96e789c77811ad2 \
    --hash=sha256:2599b93fd5ba1120b3bd1366d67a7e26bd45b3d5d5548069e00b2fbef7f20ab0 \
    --hash=sha256:2a1c71e7fb8c50e60fb4c9bab8bd5cf7c07f91a6b27dc2556d7354cd2ebb3689 \
    --hash=sha256:6a19d34cc01414d94dd5a4466f8f397293fcb8929df8eeb8989119cc5ef928bb \
    --hash=sha256:7aab39c2a61a5c6b15bb7e561218ef64770ca1fbf4cc1878c96e630e2b7cc3cc \
    --hash=sha256:8959e28bc1b87542b0ee4a8302128f633bee296252f261bf03e118c4dff725f0 \
    --hash=sha256:89820f7c488f4e9b1f74371da33403181e11e006663ddf074317aacd690838a6 \
    --hash=sha256:ab761cf0f0b0b90887e276b4a7918f11e323f2228bbb30814bbd538c122028bf \
    --hash=sha256:cc648ecaca79e37c6e26f370e802e7ae640a069913f661f66c0421084bef219a \
    --hash=sha256:d6f26e80cd55ac88e1f0397fc8d547933225a5dc1add040e27788c2a028c64c6 \
    --hash=sha256:e7d6ae4a36bfe6d7f93c6f42a0bfa1659f7d011006cb6e8207c85ef5acdb2986 \
    --hash=sha256:fc55b1fec0e4cc1134ffb09ea3970783ee2906dc5dfd7cd16917913f2cfed65b
async-timeout==3.0.1 \
    --hash=sha256:0c3c816a028d47f659d6ff5c745cb2acf1f966da1fe5c19c77a70282b25f4c5f \
    --hash=sha256:4291ca197d287d274d0b6cb5d6f8f8f82d434ed288f962539ff18cc9012f9ea3 \
    # via aiohttp
attrs==19.1.0 \
    --hash=sha256:69c0dbf2ed392de1cb5ec704444b08a5ef81680a61cb899dc08127123af36a79 \
    --hash=sha256:f0b870f674851ecbfbbbd364d6b5cbdff9dcedbc7f3f5e18a6891057f21fe399 \
    # via aiohttp
cchardet==2.1.7 \
    --hash=sha256:0b859069bbb9d27c78a2c9eb997e6f4b738db2d7039a03f8792b4058d61d1109 \
    --hash=sha256:228d2533987c450f39acf7548f474dd6814c446e9d6bd228e8f1d9a2d210f10b \
    --hash=sha256:2309ff8fc652b0fc3c0cff5dbb172530c7abb92fe9ba2417c9c0bcf688463c1c \
    --hash=sha256:24974b3e40fee9e7557bb352be625c39ec6f50bc2053f44a3d1191db70b51675 \
    --hash=sha256:273699c4e5cd75377776501b72a7b291a988c6eec259c29505094553ee505597 \
    --hash=sha256:27a9ba87c9f99e0618e1d3081189b1217a7d110e5c5597b0b7b7c3fedd1c340a \
    --hash=sha256:302aa443ae2526755d412c9631136bdcd1374acd08e34f527447f06f3c2ddb98 \
    --hash=sha256:45456c59ec349b29628a3c6bfb86d818ec3a6fbb7eb72de4ff3bd4713681c0e3 \
    --hash=sha256:48ba829badef61441e08805cfa474ccd2774be2ff44b34898f5854168c596d4d \
    --hash=sha256:50ad671e8d6c886496db62c3bd68b8d55060688c655873aa4ce25ca6105409a1 \
    --hash=sha256:54341e7e1ba9dc0add4c9d23b48d3a94e2733065c13920e85895f944596f6150 \
    --hash=sha256:54d0b26fd0cd4099f08fb9c167600f3e83619abefeaa68ad823cc8ac1f7bcc0c \
    --hash=sha256:5a25f9577e9bebe1a085eec2d6fdd72b7a9dd680811bba652ea6090fb2ff472f \
    --hash=sha256:6b6397d8a32b976a333bdae060febd39ad5479817fabf489e5596a588ad05133 \
    --hash=sha256:70eeae8aaf61192e9b247cf28969faef00578becd2602526ecd8ae7600d25e0e \
    --hash=sha256:80e6faae75ecb9be04a7b258dc4750d459529debb6b8dee024745b7b5a949a34 \
    --hash=sha256:90086e5645f8a1801350f4cc6cb5d5bf12d3fa943811bb08667744ec1ecc9ccd \
    --hash=sha256:a39526c1c526843965cec589a6f6b7c2ab07e3e56dc09a7f77a2be6a6afa4636 \
    --hash=sha256:b154effa12886e9c18555dfc41a110f601f08d69a71809c8d908be4b1ab7314f \
    --hash=sha256:b59ddc615883835e03c26f81d5fc3671fab2d32035c87f50862de0da7d7db535 \
    --hash=sha256:bd7f262f41fd9caf5a5f09207a55861a67af6ad5c66612043ed0f81c58cdf376 \
    --hash=sha256:c428b6336545053c2589f6caf24ea32276c6664cb86db817e03a94c60afa0eaf \
    --hash=sha256:c6f70139aaf47ffb94d89db603af849b82efdf756f187cdd3e566e30976c519f \
    --hash=sha256:c96aee9ebd1147400e608a3eff97c44f49811f8904e5a43069d55603ac4d8c97 \
    --hash=sha256:ec3eb5a9c475208cf52423524dcaf713c394393e18902e861f983c38eeb77f18 \
    --hash=sha256:eee4f5403dc3a37a1ca9ab87db32b48dc7e190ef84601068f45397144427cc5e \
    --hash=sha256:f16517f3697569822c6d09671217fdeab61dfebc7acb5068634d6b0728b86c0b \
    --hash=sha256:f86e0566cb61dc4397297696a4a1b30f6391b50bc52b4f073507a48466b6255a \
    --hash=sha256:fdac1e4366d0579fff056d1280b8dc6348be964fda8ebb627c0269e097ab37fa
cffi==1.12.3 \
    --hash=sha256:041c81822e9f84b1d9c401182e174996f0bae9991f33725d059b771744290774 \
    --hash=sha256:046ef9a22f5d3eed06334d01b1e836977eeef500d9b78e9ef693f9380ad0b83d \
    --hash=sha256:066bc4c7895c91812eff46f4b1c285220947d4aa46fa0a2651ff85f2afae9c90 \
    --hash=sha256:066c7ff148ae33040c01058662d6752fd73fbc8e64787229ea8498c7d7f4041b \
    --hash=sha256:2444d0c61f03dcd26dbf7600cf64354376ee579acad77aef459e34efcb438c63 \
    --hash=sha256:300832850b8f7967e278870c5d51e3819b9aad8f0a2c8dbe39ab11f119237f45 \
    --hash=sha256:34c77afe85b6b9e967bd8154e3855e847b70ca42043db6ad17f26899a3df1b25 \
    --hash=sha256:46de5fa00f7ac09f020729148ff632819649b3e05a007d286242c4882f7b1dc3 \
    --hash=sha256:4aa8ee7ba27c472d429b980c51e714a24f47ca296d53f4d7868075b175866f4b \
    --hash=sha256:4d0004eb4351e35ed950c14c11e734182591465a33e960a4ab5e8d4f04d72647 \
    --hash=sha256:4e3d3f31a1e202b0f5a35ba3bc4eb41e2fc2b11c1eff38b362de710bcffb5016 \
    --hash=sha256:50bec6d35e6b1aaeb17f7c4e2b9374ebf95a8975d57863546fa83e8d31bdb8c4 \
    --hash=sha256:55cad9a6df1e2a1d62063f79d0881a414a906a6962bc160ac968cc03ed3efcfb \
    --hash=sha256:5662ad4e4e84f1eaa8efce5da695c5d2e229c563f9d5ce5b0113f71321bcf753 \
    --hash=sha256:59b4dc008f98fc6ee2bb4fd7fc786a8d70000d058c2bbe2698275bc53a8d3fa7 \
    --hash=sha256:73e1ffefe05e4ccd7bcea61af76f36077b914f92b76f95ccf00b0c1b9186f3f9 \
    --hash=sha256:a1f0fd46eba2d71ce1589f7e50a9e2ffaeb739fb2c11e8192aa2b45d5f6cc41f \
    --hash=sha256:a2e85dc204556657661051ff4bab75a84e968669765c8a2cd425918699c3d0e8 \
    --hash=sha256:a5457d47dfff24882a21492e5815f891c0ca35fefae8aa742c6c263dac16ef1f \
    --hash=sha256:a8dccd61d52a8dae4a825cdbb7735da530179fea472903eb871a5513b5abbfdc \
    --hash=sha256:ae61af521ed676cf16ae94f30fe202781a38d7178b6b4ab622e4eec8cefaff42 \
    --hash=sha256:b012a5edb48288f77a63dba0840c92d0504aa215612da4541b7b42d849bc83a3 \
    --hash=sha256:d2c5cfa536227f57f97c92ac30c8109688ace8fa4ac086d19d0af47d134e2909 \
    --hash=sha256:d42b5796e20aacc9d15e66befb7a345454eef794fdb0737d1af593447c6c8f45 \
    --hash=sha256:dee54f5d30d775f525894d67b1495625dd9322945e7fee00731952e0368ff42d \
    --hash=sha256:e070535507bd6aa07124258171be2ee8dfc19119c28ca94c9dfb7efd23564512 \
    --hash=sha256:e1ff2748c84d97b065cc95429814cdba39bcbd77c9c85c89344b317dc0d9cbff \
    --hash=sha256:ed851c75d1e0e043cbf5ca9a8e1b13c4c90f3fbd863dacb01c0808e2b5204201 \
    # via pycares
chardet==3.0.4 \
    --hash=sha256:84ab92ed1c4d4f16916e05906b6b75a6c0fb5db821cc65e70cbd64a3e2a5eaae \
    --hash=sha256:fc323ffcaeaed0e0a02bf4d117757b98aed530d9ed4531e3e15460124c106691 \
    # via aiohttp
click==7.0 \
    --hash=sha256:2335065e6395b9e67ca716de5f7526736bfa6ceead690adf616d925bdc622b13 \
    --hash=sha256:5b94b49521f6456670fdb30cd82a4eca9412788a93fa6dd6df72c94d5a8ff2d7
fancycompleter==0.8 \
    --hash=sha256:d2522f1f3512371f295379c4c0d1962de06762eb586c199620a2a5d423539b12 \
    # via pdbpp
idna==2.8 \
    --hash=sha256:c357b3f628cf53ae2c4c05627ecc484553142ca23264e593d327bcde5e9c3407 \
    --hash=sha256:ea8b7f6188e6fa117537c3df7da9fc686d485087abf6ac197f9c46432f7e4a3c \
    # via yarl
multidict==4.5.2 \
    --hash=sha256:024b8129695a952ebd93373e45b5d341dbb87c17ce49637b34000093f243dd4f \
    --hash=sha256:041e9442b11409be5e4fc8b6a97e4bcead758ab1e11768d1e69160bdde18acc3 \
    --hash=sha256:045b4dd0e5f6121e6f314d81759abd2c257db4634260abcfe0d3f7083c4908ef \
    --hash=sha256:047c0a04e382ef8bd74b0de01407e8d8632d7d1b4db6f2561106af812a68741b \
    --hash=sha256:068167c2d7bbeebd359665ac4fff756be5ffac9cda02375b5c5a7c4777038e73 \
    --hash=sha256:148ff60e0fffa2f5fad2eb25aae7bef23d8f3b8bdaf947a65cdbe84a978092bc \
    --hash=sha256:1d1c77013a259971a72ddaa83b9f42c80a93ff12df6a4723be99d858fa30bee3 \
    --hash=sha256:1d48bc124a6b7a55006d97917f695effa9725d05abe8ee78fd60d6588b8344cd \
    --hash=sha256:31dfa2fc323097f8ad7acd41aa38d7c614dd1960ac6681745b6da124093dc351 \
    --hash=sha256:34f82db7f80c49f38b032c5abb605c458bac997a6c3142e0d6c130be6fb2b941 \
    --hash=sha256:3d5dd8e5998fb4ace04789d1d008e2bb532de501218519d70bb672c4c5a2fc5d \
    --hash=sha256:4a6ae52bd3ee41ee0f3acf4c60ceb3f44e0e3bc52ab7da1c2b2aa6703363a3d1 \
    --hash=sha256:4b02a3b2a2f01d0490dd39321c74273fed0568568ea0e7ea23e02bd1fb10a10b \
    --hash=sha256:4b843f8e1dd6a3195679d9838eb4670222e8b8d01bc36c9894d6c3538316fa0a \
    --hash=sha256:5de53a28f40ef3c4fd57aeab6b590c2c663de87a5af76136ced519923d3efbb3 \
    --hash=sha256:61b2b33ede821b94fa99ce0b09c9ece049c7067a33b279f343adfe35108a4ea7 \
    --hash=sha256:6a3a9b0f45fd75dc05d8e93dc21b18fc1670135ec9544d1ad4acbcf6b86781d0 \
    --hash=sha256:76ad8e4c69dadbb31bad17c16baee61c0d1a4a73bed2590b741b2e1a46d3edd0 \
    --hash=sha256:7ba19b777dc00194d1b473180d4ca89a054dd18de27d0ee2e42a103ec9b7d014 \
    --hash=sha256:7c1b7eab7a49aa96f3db1f716f0113a8a2e93c7375dd3d5d21c4941f1405c9c5 \
    --hash=sha256:7fc0eee3046041387cbace9314926aa48b681202f8897f8bff3809967a049036 \
    --hash=sha256:8ccd1c5fff1aa1427100ce188557fc31f1e0a383ad8ec42c559aabd4ff08802d \
    --hash=sha256:8e08dd76de80539d613654915a2f5196dbccc67448df291e69a88712ea21e24a \
    --hash=sha256:c18498c50c59263841862ea0501da9f2b3659c00db54abfbf823a80787fde8ce \
    --hash=sha256:c49db89d602c24928e68c0d510f4fcf8989d77defd01c973d6cbe27e684833b1 \
    --hash=sha256:ce20044d0317649ddbb4e54dab3c1bcc7483c78c27d3f58ab3d0c7e6bc60d26a \
    --hash=sha256:d1071414dd06ca2eafa90c85a079169bfeb0e5f57fd0b45d44c092546fcd6fd9 \
    --hash=sha256:d3be11ac43ab1a3e979dac80843b42226d5d3cccd3986f2e03152720a4297cd7 \
    --hash=sha256:db603a1c235d110c860d5f39988ebc8218ee028f07a7cbc056ba6424372ca31b \
    # via aiohttp, yarl
pdbpp==0.10.0 \
    --hash=sha256:ee7eab02ecf32d92bd66b45eedb9bda152fa13f7be0dceb7050413a52cbbc4dd
pycares==3.0.0 \
    --hash=sha256:2ca080db265ea238dc45f997f94effb62b979a617569889e265c26a839ed6305 \
    --hash=sha256:6f79c6afb6ce603009db2042fddc2e348ad093ece9784cbe2daa809499871a23 \
    --hash=sha256:70918d06eb0603016d37092a5f2c0228509eb4e6c5a3faacb4184f6ab7be7650 \
    --hash=sha256:755187d28d24a9ea63aa2b4c0638be31d65fbf7f0ce16d41261b9f8cb55a1b99 \
    --hash=sha256:7baa4b1f2146eb8423ff8303ebde3a20fb444a60db761fba0430d104fe35ddbf \
    --hash=sha256:90b27d4df86395f465a171386bc341098d6d47b65944df46518814ae298f6cc6 \
    --hash=sha256:9e090dd6b2afa65cb51c133883b2bf2240fd0f717b130b0048714b33fb0f47ce \
    --hash=sha256:a11b7d63c3718775f6e805d6464cb10943780395ab042c7e5a0a7a9f612735dd \
    --hash=sha256:b253f5dcaa0ac7076b79388a3ac80dd8f3bd979108f813baade40d3a9b8bf0bd \
    --hash=sha256:c7f4f65e44ba35e35ad3febc844270665bba21cfb0fb7d749434e705b556e087 \
    --hash=sha256:cdb342e6a254f035bd976d95807a2184038fc088d957a5104dcaab8be602c093 \
    --hash=sha256:cf08e164f8bfb83b9fe633feb56f2754fae6baefcea663593794fa0518f8f98c \
    --hash=sha256:df9bc694cf03673878ea8ce674082c5acd134991d64d6c306d4bd61c0c1df98f \
    # via aiodns
pycparser==2.19 \
    --hash=sha256:a988718abfad80b6b157acce7bf130a30876d27603738ac39f140993246b25b3 \
    # via cffi
pygments==2.4.2 \
    --hash=sha256:71e430bc85c88a430f000ac1d9b331d2407f681d6f6aec95e8bcfbc3df5b0127 \
    --hash=sha256:881c4c157e45f30af185c1ffe8d549d48ac9127433f2c380c24b84572ad66297 \
    # via pdbpp
ujson==1.35 \
    --hash=sha256:f66073e5506e91d204ab0c614a148d5aa938bdbf104751be66f8ad7a222f5f86
wmctrl==0.3 \
    --hash=sha256:d806f65ac1554366b6e31d29d7be2e8893996c0acbb2824bbf2b1f49cf628a13 \
    # via pdbpp
yarl==1.3.0 \
    --hash=sha256:024ecdc12bc02b321bc66b41327f930d1c2c543fa9a561b39861da9388ba7aa9 \
    --hash=sha256:2f3010703295fbe1aec51023740871e64bb9664c789cba5a6bdf404e93f7568f \
    --hash=sha256:3890ab952d508523ef4881457c4099056546593fa05e93da84c7250516e632eb \
    --hash=sha256:3e2724eb9af5dc41648e5bb304fcf4891adc33258c6e14e2a7414ea32541e320 \
    --hash=sha256:5badb97dd0abf26623a9982cd448ff12cb39b8e4c94032ccdedf22ce01a64842 \
    --hash=sha256:73f447d11b530d860ca1e6b582f947688286ad16ca42256413083d13f260b7a0 \
    --hash=sha256:7ab825726f2940c16d92aaec7d204cfc34ac26c0040da727cf8ba87255a33829 \
    --hash=sha256:b25de84a8c20540531526dfbb0e2d2b648c13fd5dd126728c496d7c3fea33310 \
    --hash=sha256:c6e341f5a6562af74ba55205dbd56d248daf1b5748ec48a0200ba227bb9e33f4 \
    --hash=sha256:c9bb7c249c4432cd47e75af3864bc02d26c9594f49c82e2a28624417f0ae63b8 \
    --hash=sha256:e060906c0c585565c718d1c3841747b61c5439af2211e185f6739a9412dfbde1
